(export (version D)
  (design
    (source /home/jstadler/Privat/Gruenstreifen/Umweltsensor/github/TTGO_T-Beam_KiCad/Sensor_v1_4ADC.sch)
    (date "Sa 07 Sep 2019 17:02:43 CEST")
    (tool "Eeschema 5.1.4+dfsg1-1~bpo10+1")
    (sheet (number 1) (name /) (tstamps /)
      (title_block
        (title)
        (company)
        (rev)
        (date)
        (source Sensor_v1_4ADC.sch)
        (comment (number 1) (value ""))
        (comment (number 2) (value ""))
        (comment (number 3) (value ""))
        (comment (number 4) (value "")))))
  (components
    (comp (ref J1)
      (value Conn_01x10_Female)
      (footprint Connector_PinSocket_2.54mm:PinSocket_1x10_P2.54mm_Vertical)
      (datasheet ~)
      (libsource (lib Connector) (part Conn_01x10_Female) (description "Generic connector, single row, 01x10, script generated (kicad-library-utils/schlib/autogen/connector/)"))
      (sheetpath (names /) (tstamps /))
      (tstamp 5D6E034A))
    (comp (ref J7)
      (value ADC3)
      (footprint Connector_JST:JST_XH_B3B-XH-A_1x03_P2.50mm_Vertical)
      (datasheet ~)
      (libsource (lib Connector) (part Conn_01x03_Male) (description "Generic connector, single row, 01x03, script generated (kicad-library-utils/schlib/autogen/connector/)"))
      (sheetpath (names /) (tstamps /))
      (tstamp 5D6F20CF))
    (comp (ref J6)
      (value ADC2)
      (footprint Connector_JST:JST_XH_B3B-XH-A_1x03_P2.50mm_Vertical)
      (datasheet ~)
      (libsource (lib Connector) (part Conn_01x03_Male) (description "Generic connector, single row, 01x03, script generated (kicad-library-utils/schlib/autogen/connector/)"))
      (sheetpath (names /) (tstamps /))
      (tstamp 5D6F16BB))
    (comp (ref J5)
      (value ADC1)
      (footprint Connector_JST:JST_XH_B3B-XH-A_1x03_P2.50mm_Vertical)
      (datasheet ~)
      (libsource (lib Connector) (part Conn_01x03_Male) (description "Generic connector, single row, 01x03, script generated (kicad-library-utils/schlib/autogen/connector/)"))
      (sheetpath (names /) (tstamps /))
      (tstamp 5D6F1021))
    (comp (ref J4)
      (value ADC0)
      (footprint Connector_JST:JST_XH_B3B-XH-A_1x03_P2.50mm_Vertical)
      (datasheet ~)
      (libsource (lib Connector) (part Conn_01x03_Male) (description "Generic connector, single row, 01x03, script generated (kicad-library-utils/schlib/autogen/connector/)"))
      (sheetpath (names /) (tstamps /))
      (tstamp 5D6EEBEE))
    (comp (ref J3)
      (value Conn_01x13_Female)
      (footprint Connector_PinSocket_2.54mm:PinSocket_1x13_P2.54mm_Vertical)
      (datasheet ~)
      (libsource (lib Connector) (part Conn_01x13_Female) (description "Generic connector, single row, 01x13, script generated (kicad-library-utils/schlib/autogen/connector/)"))
      (sheetpath (names /) (tstamps /))
      (tstamp 5D742435))
    (comp (ref J2)
      (value Conn_01x13_Female)
      (footprint Connector_PinSocket_2.54mm:PinSocket_1x13_P2.54mm_Vertical)
      (datasheet ~)
      (libsource (lib Connector) (part Conn_01x13_Female) (description "Generic connector, single row, 01x13, script generated (kicad-library-utils/schlib/autogen/connector/)"))
      (sheetpath (names /) (tstamps /))
      (tstamp 5D7438DB)))
  (libparts
    (libpart (lib Connector) (part Conn_01x03_Male)
      (description "Generic connector, single row, 01x03, script generated (kicad-library-utils/schlib/autogen/connector/)")
      (docs ~)
      (footprints
        (fp Connector*:*_1x??_*))
      (fields
        (field (name Reference) J)
        (field (name Value) Conn_01x03_Male))
      (pins
        (pin (num 1) (name Pin_1) (type passive))
        (pin (num 2) (name Pin_2) (type passive))
        (pin (num 3) (name Pin_3) (type passive))))
    (libpart (lib Connector) (part Conn_01x10_Female)
      (description "Generic connector, single row, 01x10, script generated (kicad-library-utils/schlib/autogen/connector/)")
      (docs ~)
      (footprints
        (fp Connector*:*_1x??_*))
      (fields
        (field (name Reference) J)
        (field (name Value) Conn_01x10_Female))
      (pins
        (pin (num 1) (name Pin_1) (type passive))
        (pin (num 2) (name Pin_2) (type passive))
        (pin (num 3) (name Pin_3) (type passive))
        (pin (num 4) (name Pin_4) (type passive))
        (pin (num 5) (name Pin_5) (type passive))
        (pin (num 6) (name Pin_6) (type passive))
        (pin (num 7) (name Pin_7) (type passive))
        (pin (num 8) (name Pin_8) (type passive))
        (pin (num 9) (name Pin_9) (type passive))
        (pin (num 10) (name Pin_10) (type passive))))
    (libpart (lib Connector) (part Conn_01x13_Female)
      (description "Generic connector, single row, 01x13, script generated (kicad-library-utils/schlib/autogen/connector/)")
      (docs ~)
      (footprints
        (fp Connector*:*_1x??_*))
      (fields
        (field (name Reference) J)
        (field (name Value) Conn_01x13_Female))
      (pins
        (pin (num 1) (name Pin_1) (type passive))
        (pin (num 2) (name Pin_2) (type passive))
        (pin (num 3) (name Pin_3) (type passive))
        (pin (num 4) (name Pin_4) (type passive))
        (pin (num 5) (name Pin_5) (type passive))
        (pin (num 6) (name Pin_6) (type passive))
        (pin (num 7) (name Pin_7) (type passive))
        (pin (num 8) (name Pin_8) (type passive))
        (pin (num 9) (name Pin_9) (type passive))
        (pin (num 10) (name Pin_10) (type passive))
        (pin (num 11) (name Pin_11) (type passive))
        (pin (num 12) (name Pin_12) (type passive))
        (pin (num 13) (name Pin_13) (type passive)))))
  (libraries
    (library (logical Connector)
      (uri /usr/share/kicad/library/Connector.lib)))
  (nets
    (net (code 1) (name "Net-(J3-Pad4)")
      (node (ref J3) (pin 4)))
    (net (code 2) (name "Net-(J3-Pad5)")
      (node (ref J3) (pin 5)))
    (net (code 3) (name "Net-(J3-Pad7)")
      (node (ref J3) (pin 7)))
    (net (code 4) (name "Net-(J1-Pad3)")
      (node (ref J3) (pin 9))
      (node (ref J1) (pin 3)))
    (net (code 5) (name "Net-(J2-Pad1)")
      (node (ref J2) (pin 1)))
    (net (code 6) (name "Net-(J2-Pad10)")
      (node (ref J2) (pin 10)))
    (net (code 7) (name "Net-(J2-Pad11)")
      (node (ref J2) (pin 11)))
    (net (code 8) (name "Net-(J3-Pad3)")
      (node (ref J3) (pin 3)))
    (net (code 9) (name VCC)
      (node (ref J5) (pin 1))
      (node (ref J4) (pin 1))
      (node (ref J6) (pin 1))
      (node (ref J7) (pin 1))
      (node (ref J1) (pin 1))
      (node (ref J2) (pin 13)))
    (net (code 10) (name "Net-(J2-Pad2)")
      (node (ref J2) (pin 2)))
    (net (code 11) (name "Net-(J2-Pad3)")
      (node (ref J2) (pin 3)))
    (net (code 12) (name "Net-(J2-Pad4)")
      (node (ref J2) (pin 4)))
    (net (code 13) (name "Net-(J2-Pad5)")
      (node (ref J2) (pin 5)))
    (net (code 14) (name "Net-(J2-Pad6)")
      (node (ref J2) (pin 6)))
    (net (code 15) (name "Net-(J2-Pad8)")
      (node (ref J2) (pin 8)))
    (net (code 16) (name "Net-(J1-Pad10)")
      (node (ref J7) (pin 2))
      (node (ref J1) (pin 10)))
    (net (code 17) (name "Net-(J1-Pad9)")
      (node (ref J6) (pin 2))
      (node (ref J1) (pin 9)))
    (net (code 18) (name "Net-(J2-Pad9)")
      (node (ref J2) (pin 9)))
    (net (code 19) (name "Net-(J3-Pad1)")
      (node (ref J3) (pin 1)))
    (net (code 20) (name "Net-(J1-Pad4)")
      (node (ref J3) (pin 10))
      (node (ref J1) (pin 4)))
    (net (code 21) (name "Net-(J3-Pad11)")
      (node (ref J3) (pin 11)))
    (net (code 22) (name "Net-(J3-Pad12)")
      (node (ref J3) (pin 12)))
    (net (code 23) (name "Net-(J2-Pad7)")
      (node (ref J2) (pin 7))
      (node (ref J3) (pin 13)))
    (net (code 24) (name "Net-(J3-Pad2)")
      (node (ref J3) (pin 2)))
    (net (code 25) (name "Net-(J1-Pad7)")
      (node (ref J4) (pin 2))
      (node (ref J1) (pin 7)))
    (net (code 26) (name "Net-(J1-Pad8)")
      (node (ref J1) (pin 8))
      (node (ref J5) (pin 2)))
    (net (code 27) (name "Net-(J1-Pad6)")
      (node (ref J1) (pin 6)))
    (net (code 28) (name GND)
      (node (ref J3) (pin 6))
      (node (ref J3) (pin 8))
      (node (ref J2) (pin 12))
      (node (ref J7) (pin 3))
      (node (ref J6) (pin 3))
      (node (ref J5) (pin 3))
      (node (ref J4) (pin 3))
      (node (ref J1) (pin 5))
      (node (ref J1) (pin 2)))))